module gitlab.com/gitlab-org/fleeting/fleeting

go 1.19

require (
	github.com/Microsoft/go-winio v0.5.1
	github.com/hashicorp/go-hclog v1.1.0
	github.com/hashicorp/go-plugin v1.4.3
	github.com/masterzen/winrm v0.0.0-20220917170901-b07f6cb0598d
	github.com/stretchr/testify v1.7.0
	golang.org/x/crypto v0.0.0-20220210151621-f4118a5b28e2
	google.golang.org/grpc v1.44.0
	google.golang.org/protobuf v1.27.1
)

require (
	github.com/Azure/go-ntlmssp v0.0.0-20211209120228-48547f28849e // indirect
	github.com/ChrisTrenkamp/goxpath v0.0.0-20210404020558-97928f7e12b6 // indirect
	github.com/davecgh/go-spew v1.1.1 // indirect
	github.com/fatih/color v1.7.0 // indirect
	github.com/gofrs/uuid v4.2.0+incompatible // indirect
	github.com/golang/protobuf v1.5.0 // indirect
	github.com/hashicorp/go-uuid v1.0.2 // indirect
	github.com/hashicorp/yamux v0.0.0-20180604194846-3520598351bb // indirect
	github.com/jcmturner/aescts/v2 v2.0.0 // indirect
	github.com/jcmturner/dnsutils/v2 v2.0.0 // indirect
	github.com/jcmturner/gofork v1.0.0 // indirect
	github.com/jcmturner/goidentity/v6 v6.0.1 // indirect
	github.com/jcmturner/gokrb5/v8 v8.4.2 // indirect
	github.com/jcmturner/rpc/v2 v2.0.3 // indirect
	github.com/masterzen/simplexml v0.0.0-20190410153822-31eea3082786 // indirect
	github.com/mattn/go-colorable v0.1.4 // indirect
	github.com/mattn/go-isatty v0.0.10 // indirect
	github.com/mitchellh/go-testing-interface v0.0.0-20171004221916-a61a99592b77 // indirect
	github.com/oklog/run v1.0.0 // indirect
	github.com/pmezard/go-difflib v1.0.0 // indirect
	github.com/stretchr/objx v0.1.0 // indirect
	golang.org/x/net v0.0.0-20211216030914-fe4d6282115f // indirect
	golang.org/x/sys v0.0.0-20210615035016-665e8c7367d1 // indirect
	golang.org/x/text v0.3.7 // indirect
	google.golang.org/genproto v0.0.0-20200526211855-cb27e3aa2013 // indirect
	gopkg.in/yaml.v3 v3.0.0-20200313102051-9f266ea9e77c // indirect
)
